{
  "Osoby": {
    "Kategoria": "Nauczyciele",
    "Osoba": [
      {
        "Id": 112,
        "Imię": "Jan",
        "Nazwisko": "Kowalski",
        "Wiek": {
          "Jednostka": "rok",
          "Wartość": 33
        }
      },
      {
        "Id": 113,
        "Imię": "Tomasz",
        "Nazwisko": "Polak",
        "Wiek": {
          "Jednostka": "rok",
          "Wartość": 43
        }
      },
      {
        "Id": 114,
        "Imię": "Janusz",
        "Nazwisko": "Polak",
        "Wiek": {
          "Jednostka": "rok",
          "Wartość": 39
        }
      }
    ]
  }
}
